722885 585011 509
758524 51777 509
889952 628342 525
60161 86554 351
940026 625255 525
866719 495807 525
805159 279717 509
820023 429806 509
446160 476941 444
139578 260099 443
355912 822691 509
999433 277877 525
683552 624722 509
63544 894037 525
791769 722731 468
331830 231643 407
481400 576923 470
742158 79722 509
918368 33001 525
889549 757039 525
659031 732141 504
982611 621777 525
947337 29765 525
732412 664210 504
924427 497655 525
877344 334358 525
918515 987504 507
784263 480181 509
189955 976675 525
393799 127535 443
591191 380555 470
86502 968906 525
104708 900088 525
115630 438425 449
522289 813752 509
934769 329822 525
235465 401342 441
338856 681347 509
223097 828574 509
665167 558210 509
663912 212087 509
841482 336180 525
189995 944102 525
755717 372497 509
582088 189716 470
222170 264262 443
154991 710092 509
77089 601543 470
973462 90250 525
579507 363945 470
639190 953584 525
443113 701884 509
781560 26690 509
524845 567047 452
50162 772786 509
441224 353074 449
42597 975590 525
520609 179113 470
506026 872915 525
578322 117835 470
681778 412133 509
960730 83558 525
690247 639352 442
48504 128506 354
897553 336774 525
117291 94774 354
253625 873996 525
878521 836570 525
185770 624567 470
920276 542868 525
580883 407169 470
251326 565946 470
465513 207449 449
222907 991004 525
532064 148430 470
810674 327397 509
882858 69417 525
894822 841571 445
732332 856347 525
447419 98987 449
697247 749735 504
936976 810986 525
522579 873897 525
192882 177487 365
917060 435916 525
314614 430757 449
617646 342859 470
675816 625124 509
88020 458242 449
87946 393160 443
971533 276958 525
517480 922797 525
659609 608783 509
521509 742781 509
681677 400034 509
610716 551883 434
93619 682443 509
997642 235265 525
160359 789805 509
330099 9967 443
112556 734652 509
804043 966386 525
954667 933508 507
432753 171864 449
939693 194043 525
226301 480714 449
583313 665311 509
678867 214648 509
668022 319700 509
278270 807589 509
849103 917389 476
32944 81388 351
437019 717102 509
812615 409042 509
776290 359447 509
90419 409833 443
561952 982766 525
217947 331109 443
877511 172369 525
53283 196426 383
247690 886748 525
928054 603461 525
933887 342260 525
653856 997669 525
94367 787442 509
788629 571233 509
557794 776025 509
434387 528643 470
144178 760770 509
335015 786067 509
245134 311598 407
626174 618922 385
695380 552978 509
661209 15153 509
179172 726870 509
756854 193796 509
528107 565382 452
98053 691086 509
237683 28570 443
116968 910015 525
928507 44072 525
653442 665941 442
259605 606162 470
279675 478485 449
749522 866787 525
529736 845668 525
350705 592467 470
686682 195355 509
24263 199392 383
865650 137232 525
849089 962715 507
37323 812701 509
568900 545149 452
689356 859631 525
243740 75498 443
152537 462656 449
586868 16165 470
256646 736276 509
764446 58398 509
469737 575814 470
579088 612633 434
90131 958594 525
128517 149627 375
442937 215297 449
466861 411260 444
45566 805274 509
298881 287512 389
671643 628289 442
374146 507756 449
761876 394394 509
566318 361713 470
289816 829318 509
370085 79822 443
805099 234616 509
490829 974534 525
218740 792872 509
27167 892752 525
434171 6803 449
743671 829296 468
814540 310213 509
468327 836046 509
523109 241741 470
833997 816737 450
593181 394830 470
504493 934981 525
197950 337149 443
650040 545134 509
255946 135220 443
381711 237245 441
941784 122786 525
388673 819504 509
210102 994524 525
303289 338318 384
512498 849735 525
760445 105179 509
785589 179707 509
325743 890057 525
656362 784457 504
477408 419616 444
461635 741543 509
