1 10 20
100 200 125
201 210 89
900 1000 174
336 2212 182
4712 4325 215
4417 10286 262
13330 2185 276
6580 8279 257
15812 487 276
4497 3846 215
25126 31890 308
501 26576 282
28740 6474 308
29147 13818 308
28326 16649 308
15488 32732 308
14094 19644 279
52694 17120 340
1614 48783 324
14503 14986 271
52611 48481 340
56004 59314 322
68337 13399 340
37193 81164 351
52989 47692 340
6286 65481 340
6849 52198 324
30701 26038 308
79055 13636 351
82282 14146 351
98310 5459 351
48900 72222 340
80010 7808 351
49975 33500 324
84195 104584 341
100011 7642 351
120500 133547 344
136445 118360 344
29205 132094 354
56712 102148 351
9232 53792 340
55632 72279 335
135605 120453 344
121291 87161 354
23770 128878 354
40716 90335 351
84979 107769 354
148524 171445 383
120457 31508 354
179095 6902 383
27098 149773 375
6801 38168 324
190350 16005 383
121283 100709 354
203921 11908 383
193798 68419 383
10897 184806 383
6987 88533 351
92054 20594 351
108356 227643 386
78329 102731 341
19186 123541 354
36098 88575 351
175404 225733 386
228066 106493 386
85737 6001 351
228041 209443 386
38251 79143 351
21221 63542 340
203240 40316 383
18809 179819 383
32886 122925 354
219413 155170 386
237266 252807 368
166135 79794 383
227853 26753 386
2302 41759 324
46963 215367 383
171591 204904 365
26265 176850 383
1446 242557 443
50274 227858 386
78147 300494 443
128719 323085 443
73934 2879 340
88353 80226 333
219360 51384 386
82892 76710 351
216496 243224 443
61914 299728 443
190062 210505 373
207544 293712 443
264831 44014 443
233921 155449 443
180438 213433 373
193541 120864 383
347244 246490 441
108822 47228 354
314587 203794 443
84207 71341 351
253853 71718 443
362242 162298 443
86235 8430 351
25628 282610 443
66293 305996 443
219766 114644 386
409998 182074 443
229211 366090 443
262032 102781 443
426737 116176 449
26819 331126 443
160390 216659 386
85765 286871 443
109433 369076 443
37159 374003 443
130689 311083 443
372900 224109 443
184894 195209 360
141183 66450 354
17498 204502 383
268856 293955 407
332092 237560 407
45290 149643 375
265193 15093 443
96068 440335 449
68855 283088 443
98978 98723 284
198831 334671 443
86279 201401 383
166078 175389 347
162745 277108 443
253208 458219 449
177913 280859 443
326762 252818 407
153182 489641 449
526907 141812 470
150413 192832 383
190077 526048 470
530967 115774 470
152502 159668 383
518191 319272 470
515270 297244 470
156038 296900 443
523220 13560 470
512133 97027 470
420345 340828 449
556071 57498 470
399817 390866 405
552112 487729 470
437849 515642 470
521101 585396 452
528945 564977 452
27913 473992 449
220848 185327 386
588970 229720 470
484566 253738 449
452390 543629 470
344275 245496 407
519429 403036 470
344265 558162 470
566356 528953 452
373984 535157 470
59395 566633 470
314278 124738 443
230556 280437 443
214816 67620 383
69280 573754 470
337554 466289 449
412608 422110 387
188167 608266 470
257589 285661 407
81950 586621 470
674876 206977 509
287889 363562 441
498609 588656 470
258019 98434 443
30727 392799 443
465637 576971 470
248034 220900 443
445028 659104 509
237777 683562 509
394131 692469 509
575275 555582 421
410033 530041 470
499781 20102 449
67191 593716 470
127053 158928 383
653408 79855 509
47366 141128 354
3733 587699 470
377760 328068 441
201652 436266 449
261107 205050 443
103132 311394 443
215640 66833 383
765848 475600 509
291748 92372 443
712646 512625 509
663234 221123 509
735010 511819 509
277996 149956 443
613683 690418 509
347782 75319 443
532754 650630 509
499031 452775 444
455347 240954 449
401124 411675 449
51378 620943 470
581163 521485 452
702427 268831 509
599545 685042 509
653365 561366 509
417320 636088 509
197292 495291 449
121081 665294 509
793593 330284 509
496842 87516 449
394449 179015 443
260212 320276 407
764167 846213 525
24579 49184 324
610654 627776 509
731666 870843 525
187280 114230 383
79299 649308 509
765044 400038 509
673625 507276 509
424399 799286 509
528242 58649 470
770777 230615 509
239331 66923 443
666561 80658 509
401171 518818 470
796920 526698 509
795756 197427 509
881680 217247 525
6201 898059 525
60492 155327 375
717542 719809 349
246689 613520 470
115371 54299 354
506490 38411 449
5603 704954 509
135957 302517 443
908923 480995 525
363914 16310 443
390277 936426 525
99756 757592 509
301548 160061 443
262824 347806 441
461890 651018 509
76650 936638 525
98358 751502 509
