1 10 20
100 200 125
201 210 89
900 1000 174
1 1 1
13 999999 525
645102 128067 509
924357 964770 507
154627 192743 383
949183 882751 507
520923 499356 470
885646 282019 525
340778 762910 509
371048 703646 509
398540 886535 525
507401 171007 449
583222 404516 470
173396 112792 383
481 865264 525
768239 80644 509
705298 974271 525
436525 792183 509
429014 310172 449
521525 792069 509
153582 482650 449
744996 388487 509
709673 996546 525
236470 297276 407
519849 750450 509
406055 592174 470
26713 758159 509
476269 180956 449
692740 689759 442
51579 734725 509
87283 982061 525
587173 52632 470
512990 882644 525
168329 355505 443
737409 243088 509
766322 542720 509
263630 967235 525
14249 964571 525
12165 939281 525
991273 809632 525
19989 26582 282
739203 22036 509
112870 772590 509
153465 397031 443
172110 526066 470
774392 512814 509
720429 706424 411
778526 934713 525
110234 102319 354
846299 991985 507
863352 300623 525
132948 395437 443
605457 532205 452
965200 736869 525
33676 556985 470
346470 150142 443
721329 382467 509
535810 138341 470
397020 964649 525
654282 548050 509
784894 64060 509
548007 866289 525
948703 887504 507
643083 131277 509
221877 823468 509
525776 67420 470
497879 646123 509
580568 800158 509
803980 303378 509
870967 442791 525
236017 910687 525
654265 367554 509
594017 658747 509
395400 260823 441
921429 598464 525
525607 556288 452
510540 788500 509
700352 588605 509
951820 411524 525
14399 836529 509
877392 175857 525
330140 995607 525
239453 691160 509
793550 959007 525
855326 128442 525
447780 310279 449
550649 487459 470
193464 249976 443
740215 436568 509
577495 946366 525
791030 952816 525
443485 105679 449
204123 552406 470
629629 582112 509
312102 63409 443
826500 939813 525
887960 482314 525
472330 528260 470
926146 811985 525
56193 657813 509
852195 887780 445
92147 678350 509
69350 941969 525
127383 667288 509
323039 380048 441
129218 810132 509
612687 324294 470
442208 893279 525
612353 843362 525
993642 784081 525
32560 464854 449
918569 207996 525
158541 856973 525
481902 259918 449
449060 671123 509
440753 129651 449
412275 482242 444
551187 203737 470
348293 716326 509
230424 396781 443
325156 171079 443
616821 11383 470
968736 456932 525
970010 656903 525
311593 342328 384
893870 199921 525
589016 108931 470
474237 223421 449
455630 109012 449
417809 239114 449
793191 495972 509
425414 562759 470
458157 5325 449
992144 650397 525
868822 696767 525
777809 302368 509
738519 507137 509
702565 778690 504
922772 571739 525
737925 136429 509
175318 184505 365
736684 704536 504
870026 206021 525
927165 493485 525
83786 316965 443
453677 17118 449
795437 989673 525
452255 664883 509
220542 825285 509
331954 747968 509
900542 301857 525
603120 4550 470
69750 316130 443
793237 156736 509
622902 343139 470
553135 474506 470
283214 411403 449
979362 559714 525
884069 863688 432
938777 962830 507
122055 129360 331
871150 8875 525
798088 139474 509
501167 429575 444
992339 56361 525
248557 221766 443
694270 543528 509
450481 745451 509
585267 396885 470
659660 432673 509
14940 836897 509
593797 561718 434
399462 354381 436
278411 576203 470
783358 71540 509
512132 316218 470
282157 330546 389
159627 462665 449
549657 101354 470
751935 822871 468
546993 630207 509
54987 551923 470
306005 526832 470
667290 240398 509
57277 157359 383
377728 949249 525
27310 932093 525
812558 935534 525
582435 556461 421
336627 274885 389
155536 657151 509
793379 503322 509
425426 32390 449
777602 940398 525
554840 851906 525
621779 921269 525
776389 750280 468
533039 601436 452
499855 647690 509
305965 731734 509
88562 870753 525
188417 968648 525
983074 59447 525
502927 361435 449
139206 368306 443
714885 588384 509
895081 106191 525
933596 270773 525
209175 733767 509
2101 459806 449
372017 68401 443
740393 201560 509
620639 563062 447
960509 228616 525
512203 416223 470
209382 299870 443
970080 110003 525
250616 797216 509
809492 944675 525
174025 477603 449
1557 684890 509
226650 66183 386
958928 194974 525
598028 643639 509
373356 639716 509
791998 542699 509
667752 939732 525
947785 931890 507
52396 733245 509
183032 137195 383
773098 256964 509
684006 873665 525
547650 194368 470
81887 989514 525
351597 66949 443
171039 390357 443
918017 410530 525
338721 361241 441
848368 729381 525
297292 173929 443
170974 224351 386
350305 934167 525
320767 947437 525
817717 324719 509
981869 368808 525
769889 400267 509
521701 860804 525
919621 358457 525
114795 259067 443
101821 532477 470
754302 551410 509
675095 800940 504
