10 9 20
3346 4074 238
10358 5805 262
11690 10501 268
16359 14022 271
16935 19055 279
24925 22826 282
28237 26831 259
20883 22942 269
40135 38930 306
36721 35837 249
29914 30258 272
55980 57125 322
65424 55878 335
56106 55597 322
48602 64406 340
69215 73992 325
54392 79050 351
94666 91822 315
70511 67744 312
80008 79999 183
73579 75801 325
102541 87337 341
94869 95763 328
115818 123935 336
77673 93899 338
102550 105938 341
120057 96535 354
84196 119316 354
128471 115560 336
99661 158441 383
119757 140232 344
105604 106686 354
139803 103001 354
150808 135832 375
111892 158997 383
143302 118716 375
183959 151500 383
212170 90238 383
107162 99670 354
194675 187695 360
193425 153557 383
160763 163537 339
161639 202983 365
164691 179609 352
124269 232523 443
182300 181107 316
192909 178406 365
136795 145480 375
207789 196476 373
197666 107911 383
194050 208894 373
209578 205058 373
171320 240206 443
215842 193914 373
215712 222048 386
289406 257388 407
307783 292963 371
120646 303778 443
227788 243820 443
235203 261782 368
274972 202281 443
271850 215226 443
232538 281796 407
263432 326198 407
224018 190786 386
275155 274003 332
263524 199667 443
272950 275589 358
229608 314715 443
275042 287981 389
235100 296144 407
281823 287066 376
345990 250242 441
299375 320417 384
282546 307729 389
345433 269539 407
313045 306068 384
279750 322041 389
321244 328356 384
236935 327071 407
337276 325667 366
236270 363076 441
388719 239111 441
332080 280114 389
362347 277238 441
318383 243085 407
446867 353244 449
364682 377261 423
280373 271370 389
363289 440664 449
353369 362592 410
366709 374705 392
257610 497363 449
424635 519434 470
405122 323769 441
362930 424389 449
335456 334417 322
352322 404153 436
376727 352168 423
382814 384821 330
357470 381350 423
253092 313778 407
395403 427038 449
252421 327137 407
406110 444964 449
384102 418392 449
552366 338269 470
503019 467507 426
407995 615287 470
318899 329197 384
484675 410907 444
424226 469473 444
456976 444354 387
435445 494266 444
538480 608692 452
369761 379331 423
399504 349599 436
446871 536891 470
560469 550457 421
491619 466599 413
277598 564026 470
460752 546295 470
501838 517039 470
493364 506207 426
485099 497953 426
605322 413803 470
566988 292949 470
366056 374343 392
536233 535990 271
560459 633367 509
694689 430804 509
535413 537500 377
462513 507641 426
538274 544076 408
728705 419121 509
478216 594546 470
389268 366661 436
565652 495886 470
556822 545301 452
526410 546501 408
551218 540672 452
684674 521496 509
398409 759235 509
359543 730665 509
425044 545178 470
592086 651567 509
663187 573177 509
622494 580772 447
464356 744667 509
628244 591687 509
749785 807667 468
637419 566642 509
449598 405101 449
608106 609372 403
567920 728595 509
340868 583572 470
804785 562670 509
354667 774433 509
638070 634984 416
560433 520330 452
526615 739221 509
788097 565088 509
653975 635301 416
857059 497115 525
669654 654410 442
842697 691112 525
486173 709960 509
682326 687878 398
908825 755797 525
690300 680122 398
646930 731027 504
761352 735806 424
736071 785342 468
802561 576417 509
864950 683976 525
682097 431562 509
834665 621249 509
742813 678366 504
850525 743571 525
886683 389546 525
687564 716888 504
818556 596309 509
761940 756449 380
702283 718605 504
455270 549558 470
688957 631390 442
832404 761473 468
877050 647439 525
748375 839600 525
764257 711810 424
809788 690826 504
774347 814249 468
567677 796467 509
785866 766252 468
561583 559359 359
784848 782061 331
693960 684001 442
818426 905232 525
812474 810403 406
704226 833029 504
729365 704046 504
424459 807731 509
817260 816471 344
888990 692649 525
716056 792756 468
869472 890428 445
691527 683429 398
924543 484403 525
740742 753776 424
787506 719037 468
825524 949481 525
832823 846363 525
552044 749862 509
806982 998896 525
668442 796016 504
861248 796334 525
980957 820004 525
623298 795283 509
971538 919462 507
912288 746004 525
918746 760290 525
812813 745292 468
908235 672284 525
768188 791464 437
916212 876261 476
691015 894263 525
803975 960934 525
853391 950049 507
849467 941162 507
958549 741069 525
642371 637045 416
733681 836595 468
968184 743443 525
917462 873521 476
943527 788587 525
852924 883204 432
713196 833143 468
952999 765070 525
964043 970780 458
775574 790400 437
696577 570080 509
783276 856994 525
962551 936912 507
933043 949498 507
956613 972296 458
929515 871872 476
926458 878847 476
986438 963188 458
961865 986526 458
